Root virtual class that signals object as a FacileDataStore — FacileBiocDataStore-class • FacileBiocData
…
    DGEList

We assume the DGEList holds "rnaseq" assay data. Set the assay_type
parameter if that's not the case.

    Examples

# DESeq2 --------------------------------------------------------------------
dds <- DESeq2::makeExampleDESeqDataSet(n=2000, m=20)
fd <- facilitate(dds)
#> Warning: 2000 identifiers were either ambiguous or unknown
fetch_assay_data(samples(fd), c("gene1", "gene20"))
#> # A tibble: 40 x 8
#>    dataset sample_id assay assay_type feature_type feature_id feature_name value
#>    <chr>   <chr>     <chr> <chr>      <chr>        <chr>      <chr>        <int>
#>  1 dataset sample1   coun… rnaseq     unknown      gene1      gene1            1
#>  2 dataset sample1   coun… rnaseq     unknown      gene20     gene20           1
#>  3 dataset sample2   coun… rnaseq     unknown      gene1      gene1            1
#>  4 dataset sample2   coun… rnaseq     unknown      gene20     gene20           3
#>  5 dataset sample3   coun… rnaseq     unknown      gene1      gene1            4
#>  6 dataset sample3   coun… rnaseq     unknown      gene20     gene20           0
#>  7 dataset sample4   coun… rnaseq     unknown      gene1      gene1            1
#>  8 dataset sample4   coun… rnaseq     unknown      gene20     gene20           4
#>  9 dataset sample5   coun… rnaseq     unknown      gene1      gene1            1
#> 10 dataset sample5   coun… rnaseq     unknown      gene20     gene20           2
#> # … with 30 more rows
fetch_assay_data(samples(fd), c("gene1", "gene20"), normalized = TRUE)
#> # A tibble: 40 x 8
#>    dataset sample_id assay assay_type feature_type feature_id feature_name
#>    <chr>   <chr>     <chr> <chr>      <chr>        <chr>      <chr>       
#>  1 dataset sample1   norm… lognorm    unknown      gene1      gene1       
#>  2 dataset sample1   norm… lognorm    unknown      gene20     gene20      
#>  3 dataset sample2   norm… lognorm    unknown      gene1      gene1       
#>  4 dataset sample2   norm… lognorm    unknown      gene20     gene20      
#>  5 dataset sample3   norm… lognorm    unknown      gene1      gene1       
#>  6 dataset sample3   norm… lognorm    unknown      gene20     gene20      
#>  7 dataset sample4   norm… lognorm    unknown      gene1      gene1       
#>  8 dataset sample4   norm… lognorm    unknown      gene20     gene20      
#>  9 dataset sample5   norm… lognorm    unknown      gene1      gene1       
#> 10 dataset sample5   norm… lognorm    unknown      gene20     gene20      
#> # … with 30 more rows, and 1 more variable: value <dbl>
fetch_assay_data(samples(fd), c("gene1", "gene20"), normalized = "cpm")
#> # A tibble: 40 x 10
#>    dataset sample_id libsize normfactor assay assay_type feature_type feature_id
#>    <chr>   <chr>       <dbl>      <dbl> <chr> <chr>      <chr>        <chr>     
#>  1 dataset sample1     79466      1.01  coun… rnaseq     unknown      gene1     
#>  2 dataset sample1     79466      1.01  coun… rnaseq     unknown      gene20    
#>  3 dataset sample2     80251      1.00  coun… rnaseq     unknown      gene1     
#>  4 dataset sample2     80251      1.00  coun… rnaseq     unknown      gene20    
#>  5 dataset sample3     78178      0.997 coun… rnaseq     unknown      gene1     
#>  6 dataset sample3     78178      0.997 coun… rnaseq     unknown      gene20    
#>  7 dataset sample4     78332      1.02  coun… rnaseq     unknown      gene1     
#>  8 dataset sample4     78332      1.02  coun… rnaseq     unknown      gene20    
#>  9 dataset sample5     78906      0.980 coun… rnaseq     unknown      gene1     
#> 10 dataset sample5     78906      0.980 coun… rnaseq     unknown      gene20    
#> # … with 30 more rows, and 2 more variables: feature_name <chr>, value <dbl>
…
